…
for (i in 1:100) {
  
  output[[i]] = sim_mean_sd(samp_size = 30)
  
} #for each iteration from 1 to 100 i need to do something (run sim_mean_sdw with sample size 30)

#Then need to save the save the output of i

#more manageable if bind rows together 

bind_rows(output)
```

    ## # A tibble: 100 × 2
    ##     mean    sd
    ##    <dbl> <dbl>
    ##  1  1.65  4.18
    ##  2  2.35  4.23
    ##  3  3.41  4.24
    ##  4  3.32  4.51
    ##  5  2.93  3.54
    ##  6  4.11  4.05
    ##  7  2.39  3.87
    ##  8  4.04  3.86
    ##  9  3.48  3.41
    ## 10  2.03  4.66
    ## # ℹ 90 more rows
…
